{
    "access-log-file": null,
    "access-password": null,
    "algo-ext": true,
    "api": {
        "id": null,
        "worker-id": null
    },
    "http": {
        "enabled": false,
        "host": "127.0.0.1",
        "port": 0,
        "access-token": null,
        "restricted": true
    },
    "background": false,
    "bind": [
        {
            "host": "0.0.0.0",
            "port": 3333,
            "tls": false
        },
        {
            "host": "::",
            "port": 3333,
            "tls": false
        }
    ],
    "colors": true,
    "title": true,
    "custom-diff": 0,
    "custom-diff-stats": false,
    "donate-level": 0,
    "log-file": null,
    "mode": "nicehash",
    "pools": [
        {
            "algo": null,
            "coin": "monero",
            "url": "stratum2+tcp://randomxmonero.eu.nicehash.com:3380",
            "user": "3Qdzp6SbNGZNkGxnDCk713CsxjTTNAH38k",
            "pass": "x",
            "rig-id": null,
            "keepalive": false,
            "enabled": true,
            "tls": false,
            "tls-fingerprint": null,
            "daemon": false
        }
    ],
    "retries": 2,
    "retry-pause": 1,
    "reuse-timeout": 0,
    "tls": {
        "enabled": true,
        "protocols": null,
        "cert": null,
        "cert_key": null,
        "ciphers": null,
        "ciphersuites": null,
        "dhparam": null
    },
    "user-agent": null,
    "syslog": false,
    "verbose": false,
    "watch": true,
    "workers": true
}
